test_2.0/MCU_Acceptance_with_MCU_board/.Xil/Vivado-9424-LAPTOP-RMLPCUQ9/hw_ila_data_1/zip_work/waveform.vcd
$date
        2023-Jul-04 04:25:31
$end
$version
        Vivado v2020.2 (64-bit)
$end
$timescale
        1ps
$end
$scope module dut $end
$var reg 1 " ready $end
$var reg 1 # finish $end
$var reg 16 $ cnt [15:0] $end
$var reg 32 4 data_out [31:0] $end
$var reg 32 T mcu_data_out [31:0] $end
$var reg 1 t rst_n_IBUF $end
$var reg 1 u _TRIGGER $end
$var reg 1 v _WINDOW $end
$var reg 1 w _GAP $end
$upscope $end
$enddefinitions $end
#0
$dumpvars
1"
0#
b0 $
b1000110000000 4
b0 T
0t
0u
1v
0w
$end
#4096
1t
1u
#4133
b1 $
b11111111111111111110100011100110 4
#4134
b10 $
b0 4
#4135
b11 $
#4136
b100 $
#4137
b101 $
#4138
b110 $
#4139
b111 $
#4140
b1000 $
#4141
b1001 $
#4142
b1010 $
#4143
b1011 $
#4144
b1100 $
#4145
b1101 $
#4146
b1110 $
b11111111111111111111111111111110 4
#4147
b1111 $
#4148
b10000 $
#4149
b10001 $
#4150
b10010 $
b11111111111111111111111111101010 4
#4151
b10011 $
#4152
b10100 $
#4153
b10101 $
#4154
b10110 $
#4155
b10111 $
#4156
b11000 $
b100110 4
#4157
b11001 $
#4158
b11010 $
#4159
b11011 $
#4160
b11100 $
#4161
b11101 $
#4162
b11110 $
#4163
b11111 $
#4164
b100000 $
b110001000 4
#4165
b100001 $
#4166
b100010 $
#4167
b100011 $
#4168
b100100 $
#4169
b100101 $
#4170
b100110 $
#4171
b100111 $
#4172
b101000 $
#4173
b101001 $
#4174
b101010 $
b11111111111111111111101101110011 4
#4175
b101011 $
#4176
b101100 $
#4177
b101101 $
#4178
b101110 $
#4179
b101111 $
#4180
b110000 $
#4181
b110001 $
#4182
b110010 $
#4183
b110011 $
#4184
b110100 $
#4185
b110101 $
#4186
b110110 $
#4187
b110111 $
#4188
b111000 $
b1011101110 4
#4189
b111001 $
#4190
b111010 $
#4191
b111011 $
#4192
b111100 $
#4193
b111101 $
#4194
b111110 $
#4195
b111111 $
#4196
b1000000 $
#4197
b1000001 $
#4198
b1000010 $
#4199
b1000011 $
#4200
b1000100 $
#4201
b1000101 $
#4202
b1000110 $
#4203
b1000111 $
#4204
b1001000 $
#4205
b1001001 $
#4206
b1001010 $
b11111111111111111111110110011110 4
#4207
b1001011 $
#4208
b1001100 $
#4209
b1001101 $
#4210
b1001110 $
#4211
b1001111 $
#4212
b1010000 $
#4213
b1010001 $
#4214
b1010010 $
#4215
b1010011 $
#4216
b1010100 $
#4217
b1010101 $
#4218
b1010110 $
#4219
b1010111 $
#4220
b1011000 $
#4221
b1011001 $
#4222
b1011010 $
#4223
b1011011 $
#4224
b1011100 $
#4225
b1011101 $
#4226
b1011110 $
#4227
b1011111 $
#4228
b1100000 $
b1001011010011 4
#4229
b1100001 $
#4230
b1100010 $
#4231
b1100011 $
#4232
b1100100 $
#4233
b1100101 $
#4234
b1100110 $
#4235
b1100111 $
#4236
b1101000 $
#4237
b1101001 $
#4238
b1101010 $
#4239
b1101011 $
#4240
b1101100 $
#4241
b1101101 $
#4242
b1101110 $
#4243
b1101111 $
#4244
b1110000 $
#4245
b1110001 $
#4246
b1110010 $
#4247
b1110011 $
#4248
b1110100 $
#4249
b1110101 $
#4250
b1110110 $
#4251
b1110111 $
#4252
b1111000 $
#4253
b1111001 $
#4254
b1111010 $
b11111111111111111111011010111101 4
#4255
b1111011 $
#4256
b1111100 $
#4257
b1111101 $
#4258
b1111110 $
#4259
b1111111 $
#4260
b10000000 $
#4261
b10000001 $
#4262
b10000010 $
#4263
b10000011 $
#4264
b10000100 $
#4265
b10000101 $
#4266
b10000110 $
#4267
b10000111 $
#4268
b10001000 $
#4269
b10001001 $
#4270
b10001010 $
#4271
b10001011 $
#4272
b10001100 $
#4273
b10001101 $
#4274
b10001110 $
#4275
b10001111 $
#4276
b10010000 $
#4277
b10010001 $
#4278
b10010010 $
#4279
b10010011 $
#4280
b10010100 $
#4281
b10010101 $
#4282
b10010110 $
#4283
b10010111 $
#4284
b10011000 $
b1001010110100 4
#4285
b10011001 $
#4286
b10011010 $
#4287
b10011011 $
#4288
b10011100 $
#4289
b10011101 $
#4290
b10011110 $
#4291
b10011111 $
#4292
b10100000 $
#4293
b10100001 $
#4294
b10100010 $
#4295
b10100011 $
#4296
b10100100 $
#4297
b10100101 $
#4298
b10100110 $
#4299
b10100111 $
#4300
b10101000 $
#4301
b10101001 $
#4302
b10101010 $
#4303
b10101011 $
#4304
b10101100 $
#4305
b10101101 $
#4306
b10101110 $
#4307
b10101111 $
#4308
b10110000 $
#4309
b10110001 $
#4310
b10110010 $
#4311
b10110011 $
#4312
b10110100 $
#4313
b10110101 $
#4314
b10110110 $
#4315
b10110111 $
#4316
b10111000 $
#4317
b10111001 $
#4318
b10111010 $
#4319
b10111011 $
b11111111111111111111111010100101 4
#4320
b10111100 $
#4321
b10111101 $
#4322
b10111110 $
#4323
b10111111 $
#4324
b11000000 $
#4325
b11000001 $
#4326
b11000010 $
#4327
b11000011 $
#4328
b11000100 $
#4329
b11000101 $
#4330
b11000110 $
#4331
b11000111 $
#4332
b11001000 $
#4333
b11001001 $
#4334
b11001010 $
#4335
b11001011 $
#4336
b11001100 $
#4337
b11001101 $
#4338
b11001110 $
#4339
b11001111 $
#4340
b11010000 $
#4341
b11010001 $
#4342
b11010010 $
#4343
b11010011 $
#4344
b11010100 $
#4345
b11010101 $
#4346
b11010110 $
#4347
b11010111 $
#4348
b11011000 $
#4349
b11011001 $
#4350
b11011010 $
#4351
b11011011 $
#4352
b11011100 $
#4353
b11011101 $
#4354
b11011110 $
#4355
b11011111 $
#4356
b11100000 $
#4357
b11100001 $
#4358
b11100010 $
b1000110000000 4
#4359
b11100011 $
#4360
b11100100 $
#4361
b11100101 $
#4362
b11100110 $
#4363
b11100111 $
#4364
b11101000 $
#4365
b11101001 $
#4366
b11101010 $
#4367
b11101011 $
#4368
b11101100 $
#4369
b11101101 $
#4370
b11101110 $
#4371
b11101111 $
#4372
b11110000 $
#4373
b11110001 $
#4374
b11110010 $
#4375
b11110011 $
#4376
b11110100 $
#4377
b11110101 $
#4378
b11110110 $
#4379
b11110111 $
#4380
b11111000 $
#4381
b11111001 $
#4382
b11111010 $
#4383
b11111011 $
#4384
b11111100 $
#4385
b11111101 $
#4386
b11111110 $
#4387
b11111111 $
#4388
b100000000 $
#4389
b100000001 $
#4390
b100000010 $
#4391
b100000011 $
#4392
b100000100 $
#4393
b100000101 $
#4394
b100000110 $
#4395
b100000111 $
#4396
b100001000 $
#4397
b100001001 $
#4398
b100001010 $
#4399
b100001011 $
#4400
b100001100 $
#4401
b100001101 $
b11111111111111111110100011100110 4
#4402
b100001110 $
#4403
b100001111 $
#4404
b100010000 $
#4405
b100010001 $
#4406
b100010010 $
#4407
b100010011 $
#4408
b100010100 $
#4409
b100010101 $
#4410
b100010110 $
#4411
b100010111 $
#4412
b100011000 $
#4413
b100011001 $
#4414
b100011010 $
#4415
b100011011 $
#4416
b100011100 $
#4417
b100011101 $
#4418
b100011110 $
#4419
b100011111 $
#4420
b100100000 $
#4421
b100100001 $
#4422
b100100010 $
#4423
b100100011 $
#4424
b100100100 $
#4425
b100100101 $
#4426
b100100110 $
#4427
b100100111 $
#4428
b100101000 $
#4429
b100101001 $
#4430
b100101010 $
#4431
b100101011 $
#4432
b100101100 $
#4433
b100101101 $
#4434
b100101110 $
#4435
b100101111 $
#4436
b100110000 $
#4437
b100110001 $
#4438
b100110010 $
#4439
b100110011 $
#4440
b100110100 $
#4441
b100110101 $
#4442
b100110110 $
#4443
b100110111 $
#4444
b100111000 $
#4445
b100111001 $
#4446
b100111010 $
#4447
b100111011 $
#4448
b100111100 $
b101100001000 4
#4449
b100111101 $
#4450
b100111110 $
#4451
b100111111 $
#4452
b101000000 $
#4453
b101000001 $
#4454
b101000010 $
#4455
b101000011 $
#4456
b101000100 $
#4457
b101000101 $
#4458
b101000110 $
#4459
b101000111 $
#4460
b101001000 $
#4461
b101001001 $
#4462
b101001010 $
#4463
b101001011 $
#4464
b101001100 $
#4465
b101001101 $
#4466
b101001110 $
#4467
b101001111 $
#4468
b101010000 $
#4469
b101010001 $
#4470
b101010010 $
#4471
b101010011 $
#4472
b101010100 $
#4473
b101010101 $
#4474
b101010110 $
#4475
b101010111 $
#4476
b101011000 $
#4477
b101011001 $
#4478
b101011010 $
#4479
b101011011 $
#4480
b101011100 $
#4481
b101011101 $
#4482
b101011110 $
#4483
b101011111 $
#4484
b101100000 $
#4485
b101100001 $
#4486
b101100010 $
#4487
b101100011 $
#4488
b101100100 $
#4489
b101100101 $
#4490
b101100110 $
#4491
b101100111 $
#4492
b101101000 $
#4493
b101101001 $
#4494
b101101010 $
#4495
b101101011 $
#4496
b101101100 $
#4497
b101101101 $
#4498
b101101110 $
#4499
b101101111 $
b11111111111111111110110000100110 4
#4500
b101110000 $
#4501
b101110001 $
#4502
b101110010 $
#4503
b101110011 $
#4504
b101110100 $
#4505
b101110101 $
#4506
b101110110 $
#4507
b101110111 $
#4508
b101111000 $
#4509
b101111001 $
#4510
b101111010 $
#4511
b101111011 $
#4512
b101111100 $
#4513
b101111101 $
#4514
b101111110 $
#4515
b101111111 $
#4516
b110000000 $
#4517
b110000001 $
#4518
b110000010 $
#4519
b110000011 $
#4520
b110000100 $
#4521
b110000101 $
#4522
b110000110 $
#4523
b110000111 $
#4524
b110001000 $
#4525
b110001001 $
#4526
b110001010 $
#4527
b110001011 $
#4528
b110001100 $
#4529
b110001101 $
#4530
b110001110 $
#4531
b110001111 $
#4532
b110010000 $
#4533
b110010001 $
#4534
b110010010 $
#4535
b110010011 $
#4536
b110010100 $
#4537
b110010101 $
#4538
b110010110 $
#4539
b110010111 $
#4540
b110011000 $
#4541
b110011001 $
#4542
b110011010 $
#4543
b110011011 $
#4544
b110011100 $
#4545
b110011101 $
#4546
b110011110 $
#4547
b110011111 $
#4548
b110100000 $
#4549
b110100001 $
#4550
b110100010 $
#4551
b110100011 $
#4552
b110100100 $
#4553
b110100101 $
#4554
b110100110 $
b1001111101100 4
#4555
b110100111 $
#4556
b110101000 $
#4557
b110101001 $
#4558
b110101010 $
#4559
b110101011 $
#4560
b110101100 $
#4561
b110101101 $
#4562
b110101110 $
#4563
b110101111 $
#4564
b110110000 $
#4565
b110110001 $
#4566
b110110010 $
#4567
b110110011 $
#4568
b110110100 $
#4569
b110110101 $
#4570
b110110110 $
#4571
b110110111 $
#4572
b110111000 $
#4573
b110111001 $
#4574
b110111010 $
#4575
b110111011 $
#4576
b110111100 $
#4577
b110111101 $
#4578
b110111110 $
#4579
b110111111 $
#4580
b111000000 $
#4581
b111000001 $
#4582
b111000010 $
#4583
b111000011 $
#4584
b111000100 $
#4585
b111000101 $
#4586
b111000110 $
#4587
b111000111 $
#4588
b111001000 $
#4589
b111001001 $
#4590
b111001010 $
#4591
b111001011 $
#4592
b111001100 $
#4593
b111001101 $
#4594
b111001110 $
#4595
b111001111 $
#4596
b111010000 $
#4597
b111010001 $
#4598
b111010010 $
#4599
b111010011 $
#4600
b111010100 $
#4601
b111010101 $
#4602
b111010110 $
#4603
b111010111 $
#4604
b111011000 $
#4605
b111011001 $
#4606
b111011010 $
#4607
b111011011 $
#4608
b111011100 $
#4609
b111011101 $
#4610
b111011110 $
#4611
b111011111 $
#4612
b111100000 $
#4613
b111100001 $
#4614
b111100010 $
#4615
b111100011 $
#4616
b111100100 $
b11111111111111111111010100010110 4
#4617
b111100101 $
#4618
b111100110 $
#4619
b111100111 $
#4620
b111101000 $
#4621
b111101001 $
#4622
b111101010 $
#4623
b111101011 $
#4624
b111101100 $
#4625
b111101101 $
#4626
b111101110 $
#4627
b111101111 $
#4628
b111110000 $
#4629
b111110001 $
#4630
b111110010 $
#4631
b111110011 $
#4632
b111110100 $
#4633
b111110101 $
#4634
b111110110 $
#4635
b111110111 $
#4636
b111111000 $
#4637
b111111001 $
#4638
b111111010 $
#4639
b111111011 $
#4640
b111111100 $
#4641
b111111101 $
#4642
b111111110 $
#4643
b111111111 $
#4644
b1000000000 $
#4645
b1000000001 $
#4646
b1000000010 $
#4647
b1000000011 $
#4648
b1000000100 $
#4649
b1000000101 $
#4650
b1000000110 $
#4651
b1000000111 $
#4652
b1000001000 $
#4653
b1000001001 $
#4654
b1000001010 $
#4655
b1000001011 $
#4656
b1000001100 $
#4657
b1000001101 $
#4658
b1000001110 $
#4659
b1000001111 $
#4660
b1000010000 $
#4661
b1000010001 $
#4662
b1000010010 $
#4663
b1000010011 $
b101111100010 4
#4664
b1000010100 $
#4665
b1000010101 $
#4666
b1000010110 $
#4667
b1000010111 $
#4668
b1000011000 $
#4669
b1000011001 $
#4670
b1000011010 $
#4671
b1000011011 $
#4672
b1000011100 $
#4673
b1000011101 $
#4674
b1000011110 $
#4675
b1000011111 $
#4676
b1000100000 $
#4677
b1000100001 $
#4678
b1000100010 $
#4679
b1000100011 $
#4680
b1000100100 $
#4681
b1000100101 $
#4682
b1000100110 $
#4683
b1000100111 $
#4684
b1000101000 $
#4685
b1000101001 $
#4686
b1000101010 $
#4687
b1000101011 $
#4688
b1000101100 $
#4689
b1000101101 $
#4690
b1000101110 $
#4691
b1000101111 $
#4692
b1000110000 $
#4693
b1000110001 $
#4694
b1000110010 $
#4695
b1000110011 $
#4696
b1000110100 $
#4697
b1000110101 $
#4698
b1000110110 $
#4699
b1000110111 $
#4700
b1000111000 $
#4701
b1000111001 $
#4702
b1000111010 $
#4703
b1000111011 $
#4704
b1000111100 $
#4705
b1000111101 $
#4706
b1000111110 $
b11111111111111111111110010000000 4
#4707
b1000111111 $
#4708
b1001000000 $
#4709
b1001000001 $
#4710
b1001000010 $
#4711
b1001000011 $
#4712
b1001000100 $
#4713
b1001000101 $
#4714
b1001000110 $
#4715
b1001000111 $
#4716
b1001001000 $
#4717
b1001001001 $
#4718
b1001001010 $
#4719
b1001001011 $
#4720
b1001001100 $
#4721
b1001001101 $
#4722
b1001001110 $
#4723
b1001001111 $
#4724
b1001010000 $
#4725
b1001010001 $
#4726
b1001010010 $
#4727
b1001010011 $
#4728
b1001010100 $
#4729
b1001010101 $
#4730
b1001010110 $
#4731
b1001010111 $
#4732
b1001011000 $
#4733
b1001011001 $
#4734
b1001011010 $
#4735
b1001011011 $
#4736
b1001011100 $
#4737
b1001011101 $
#4738
b1001011110 $
#4739
b1001011111 $
#4740
b1001100000 $
#4741
b1001100001 $
#4742
b1001100010 $
#4743
b1001100011 $
#4744
b1001100100 $
#4745
b1001100101 $
b11111111111111111111001101101000 4
#4746
b1001100110 $
#4747
b1001100111 $
#4748
b1001101000 $
#4749
b1001101001 $
#4750
b1001101010 $
#4751
b1001101011 $
#4752
b1001101100 $
#4753
b1001101101 $
#4754
b1001101110 $
#4755
b1001101111 $
#4756
b1001110000 $
#4757
b1001110001 $
#4758
b1001110010 $
#4759
b1001110011 $
#4760
b1001110100 $
#4761
b1001110101 $
#4762
b1001110110 $
#4763
b1001110111 $
#4764
b1001111000 $
#4765
b1001111001 $
#4766
b1001111010 $
#4767
b1001111011 $
#4768
b1001111100 $
#4769
b1001111101 $
#4770
b1001111110 $
#4771
b1001111111 $
#4772
b1010000000 $
#4773
b1010000001 $
#4774
b1010000010 $
#4775
b1010000011 $
#4776
b1010000100 $
#4777
b1010000101 $
#4778
b1010000110 $
#4779
b1010000111 $
#4780
b1010001000 $
b110010000 4
#4781
b1010001001 $
#4782
b1010001010 $
#4783
b1010001011 $
#4784
b1010001100 $
#4785
b1010001101 $
#4786
b1010001110 $
#4787
b1010001111 $
#4788
b1010010000 $
#4789
b1010010001 $
#4790
b1010010010 $
#4791
b1010010011 $
#4792
b1010010100 $
#4793
b1010010101 $
#4794
b1010010110 $
#4795
b1010010111 $
#4796
b1010011000 $
#4797
b1010011001 $
#4798
b1010011010 $
#4799
b1010011011 $
#4800
b1010011100 $
#4801
b1010011101 $
#4802
b1010011110 $
#4803
b1010011111 $
#4804
b1010100000 $
#4805
b1010100001 $
#4806
b1010100010 $
#4807
b1010100011 $
#4808
b1010100100 $
#4809
b1010100101 $
#4810
b1010100110 $
b100001100010 4
#4811
b1010100111 $
#4812
b1010101000 $
#4813
b1010101001 $
#4814
b1010101010 $
#4815
b1010101011 $
#4816
b1010101100 $
#4817
b1010101101 $
#4818
b1010101110 $
#4819
b1010101111 $
#4820
b1010110000 $
#4821
b1010110001 $
#4822
b1010110010 $
#4823
b1010110011 $
#4824
b1010110100 $
#4825
b1010110101 $
#4826
b1010110110 $
#4827
b1010110111 $
#4828
b1010111000 $
#4829
b1010111001 $
#4830
b1010111010 $
#4831
b1010111011 $
#4832
b1010111100 $
#4833
b1010111101 $
#4834
b1010111110 $
#4835
b1010111111 $
#4836
b1011000000 $
b1110011101 4
#4837
b1011000001 $
#4838
b1011000010 $
#4839
b1011000011 $
#4840
b1011000100 $
#4841
b1011000101 $
#4842
b1011000110 $
#4843
b1011000111 $
#4844
b1011001000 $
#4845
b1011001001 $
#4846
b1011001010 $
#4847
b1011001011 $
#4848
b1011001100 $
#4849
b1011001101 $
#4850
b1011001110 $
#4851
b1011001111 $
#4852
b1011010000 $
#4853
b1011010001 $
#4854
b1011010010 $
#4855
b1011010011 $
#4856
b1011010100 $
#4857
b1011010101 $
#4858
b1011010110 $
b11111111111111111111110010000101 4
#4859
b1011010111 $
#4860
b1011011000 $
#4861
b1011011001 $
#4862
b1011011010 $
#4863
b1011011011 $
#4864
b1011011100 $
#4865
b1011011101 $
#4866
b1011011110 $
#4867
b1011011111 $
#4868
b1011100000 $
#4869
b1011100001 $
#4870
b1011100010 $
#4871
b1011100011 $
#4872
b1011100100 $
#4873
b1011100101 $
#4874
b1011100110 $
#4875
b1011100111 $
#4876
b1011101000 $
b111010 4
#4877
b1011101001 $
#4878
b1011101010 $
#4879
b1011101011 $
#4880
b1011101100 $
#4881
b1011101101 $
#4882
b1011101110 $
#4883
b1011101111 $
#4884
b1011110000 $
#4885
b1011110001 $
#4886
b1011110010 $
#4887
b1011110011 $
#4888
b1011110100 $
#4889
b1011110101 $
#4890
b1011110110 $
b101010100010 4
#4891
b1011110111 $
#4892
b1011111000 $
#4893
b1011111001 $
#4894
b1011111010 $
#4895
b1011111011 $
#4896
b1011111100 $
#4897
b1011111101 $
#4898
b1011111110 $
#4899
b1011111111 $
#4900
b1100000000 $
b11111111111111111111100011101000 4
#4901
b1100000001 $
#4902
b1100000010 $
#4903
b1100000011 $
#4904
b1100000100 $
#4905
b1100000101 $
#4906
b1100000110 $
#4907
b1100000111 $
#4908
b1100001000 $
b11111111111111111111010001110100 4
#4909
b1100001001 $
#4910
b1100001010 $
#4911
b1100001011 $
#4912
b1100001100 $
#4913
b1100001101 $
#4914
b1100001110 $
b11101001110 4
#4915
b1100001111 $
#4916
b1100010000 $
#4917
b1100010001 $
#4918
b1100010010 $
b1100011000 4
#4919
0"
1#
b1100010011 $
#4920
b1100010100 $
b11111111111111111111111000011100 4
b11111111111111111111111111111110 T
#4922
b11111111111111111111111111111110 4
b11111111111111111111111111101010 T
#4923
b11111111111111111111111111101010 4
b100110 T
#4924
b100110 4
b110001000 T
#4925
b110001000 4
b11111111111111111111101101110011 T
#4926
b11111111111111111111101101110011 4
b1011101110 T
#4927
b1011101110 4
b11111111111111111111110110011110 T
#4928
b11111111111111111111110110011110 4
b1001011010011 T
#4929
b1001011010011 4
b11111111111111111111011010111101 T
#4930
b11111111111111111111011010111101 4
b1001010110100 T
#4931
b1001010110100 4
b11111111111111111111111010100101 T
#4932
b11111111111111111111111010100101 4
b1000110000000 T
#4933
b1000110000000 4
b11111111111111111110100011100110 T
#4934
b11111111111111111110100011100110 4
b101100001000 T
#4935
b101100001000 4
b11111111111111111110110000100110 T
#4936
b11111111111111111110110000100110 4
b1001111101100 T
#4937
b1001111101100 4
b11111111111111111111010100010110 T
#4938
b11111111111111111111010100010110 4
b101111100010 T
#4939
b101111100010 4
b11111111111111111111110010000000 T
#4940
b11111111111111111111110010000000 4
b11111111111111111111001101101000 T
#4941
b11111111111111111111001101101000 4
b110010000 T
#4942
b110010000 4
b100001100010 T
#4943
b100001100010 4
b1110011101 T
#4944
b1110011101 4
b11111111111111111111110010000101 T
#4945
b11111111111111111111110010000101 4
b111010 T
#4946
b111010 4
b101010100010 T
#4947
b101010100010 4
b11111111111111111111100011101000 T
#4948
b11111111111111111111100011101000 4
b11111111111111111111010001110100 T
#4949
b11111111111111111111010001110100 4
b11101001110 T
#4950
b11101001110 4
b1100011000 T
#4951
b1100011000 4
b11111111111111111111111000011100 T
#4952
b11111111111111111111111000011100 4
b11111111111111111111111111111110 T
#4953
b11111111111111111111111111111110 4
b11111111111111111111111111101010 T
#4954
b11111111111111111111111111101010 4
b100110 T
#4955
b100110 4
b110001000 T
#4956
b110001000 4
b11111111111111111111101101110011 T
#4957
b11111111111111111111101101110011 4
b1011101110 T
#4958
b1011101110 4
b11111111111111111111110110011110 T
#4959
b11111111111111111111110110011110 4
b1001011010011 T
#4960
b1001011010011 4
b11111111111111111111011010111101 T
#4961
b11111111111111111111011010111101 4
b1001010110100 T
#4962
b1001010110100 4
b11111111111111111111111010100101 T
#4963
b11111111111111111111111010100101 4
b1000110000000 T
#4964
b1000110000000 4
b11111111111111111110100011100110 T
#4965
b11111111111111111110100011100110 4
b101100001000 T
#4966
b101100001000 4
b11111111111111111110110000100110 T
#4967
b11111111111111111110110000100110 4
b1001111101100 T
#4968
b1001111101100 4
b11111111111111111111010100010110 T
#4969
b11111111111111111111010100010110 4
b101111100010 T
#4970
b101111100010 4
b11111111111111111111110010000000 T
#4971
b11111111111111111111110010000000 4
b11111111111111111111001101101000 T
#4972
b11111111111111111111001101101000 4
b110010000 T
#4973
b110010000 4
b100001100010 T
#4974
b100001100010 4
b1110011101 T
#4975
b1110011101 4
b11111111111111111111110010000101 T
#4976
b11111111111111111111110010000101 4
b111010 T
#4977
b111010 4
b101010100010 T
#4978
b101010100010 4
b11111111111111111111100011101000 T
#4979
b11111111111111111111100011101000 4
b11111111111111111111010001110100 T
#4980
b11111111111111111111010001110100 4
b11101001110 T
#4981
b11101001110 4
b1100011000 T
#4982
b1100011000 4
b11111111111111111111111000011100 T
#4983
b11111111111111111111111000011100 4
b11111111111111111111111111111110 T
#4984
b11111111111111111111111111111110 4
b11111111111111111111111111101010 T
#4985
b11111111111111111111111111101010 4
b100110 T
#4986
b100110 4
b110001000 T
#4987
b110001000 4
b11111111111111111111101101110011 T
#4988
b11111111111111111111101101110011 4
b1011101110 T
#4989
b1011101110 4
b11111111111111111111110110011110 T
#4990
b11111111111111111111110110011110 4
b1001011010011 T
#4991
b1001011010011 4
b11111111111111111111011010111101 T
#4992
b11111111111111111111011010111101 4
b1001010110100 T
#4993
b1001010110100 4
b11111111111111111111111010100101 T
#4994
b11111111111111111111111010100101 4
b1000110000000 T
#4995
b1000110000000 4
b11111111111111111110100011100110 T
#4996
b11111111111111111110100011100110 4
b101100001000 T
#4997
b101100001000 4
b11111111111111111110110000100110 T
#4998
b11111111111111111110110000100110 4
b1001111101100 T
#4999
b1001111101100 4
b11111111111111111111010100010110 T
#5000
b11111111111111111111010100010110 4
b101111100010 T
#5001
b101111100010 4
b11111111111111111111110010000000 T
#5002
b11111111111111111111110010000000 4
b11111111111111111111001101101000 T
#5003
b11111111111111111111001101101000 4
b110010000 T
#5004
b110010000 4
b100001100010 T
#5005
b100001100010 4
b1110011101 T
#5006
b1110011101 4
b11111111111111111111110010000101 T
#5007
b11111111111111111111110010000101 4
b111010 T
#5008
b111010 4
b101010100010 T
#5009
b101010100010 4
b11111111111111111111100011101000 T
#5010
b11111111111111111111100011101000 4
b11111111111111111111010001110100 T
#5011
b11111111111111111111010001110100 4
b11101001110 T
#5012
b11101001110 4
b1100011000 T
#5013
b1100011000 4
b11111111111111111111111000011100 T
#5014
b11111111111111111111111000011100 4
b11111111111111111111111111111110 T
#5015
b11111111111111111111111111111110 4
b11111111111111111111111111101010 T
#5016
b11111111111111111111111111101010 4
b100110 T
#5017
b100110 4
b110001000 T
#5018
b110001000 4
b11111111111111111111101101110011 T
#5019
b11111111111111111111101101110011 4
b1011101110 T
#5020
b1011101110 4
b11111111111111111111110110011110 T
#5021
b11111111111111111111110110011110 4
b1001011010011 T
#5022
b1001011010011 4
b11111111111111111111011010111101 T
#5023
b11111111111111111111011010111101 4
b1001010110100 T
#5024
b1001010110100 4
b11111111111111111111111010100101 T
#5025
b11111111111111111111111010100101 4
b1000110000000 T
#5026
b1000110000000 4
b11111111111111111110100011100110 T
#5027
b11111111111111111110100011100110 4
b101100001000 T
#5028
b101100001000 4
b11111111111111111110110000100110 T
#5029
b11111111111111111110110000100110 4
b1001111101100 T
#5030
b1001111101100 4
b11111111111111111111010100010110 T
#5031
b11111111111111111111010100010110 4
b101111100010 T
#5032
b101111100010 4
b11111111111111111111110010000000 T
#5033
b11111111111111111111110010000000 4
b11111111111111111111001101101000 T
#5034
b11111111111111111111001101101000 4
b110010000 T
#5035
b110010000 4
b100001100010 T
#5036
b100001100010 4
b1110011101 T
#5037
b1110011101 4
b11111111111111111111110010000101 T
#5038
b11111111111111111111110010000101 4
b111010 T
#5039
b111010 4
b101010100010 T
#5040
b101010100010 4
b11111111111111111111100011101000 T
#5041
b11111111111111111111100011101000 4
b11111111111111111111010001110100 T
#5042
b11111111111111111111010001110100 4
b11101001110 T
#5043
b11101001110 4
b1100011000 T
#5044
b1100011000 4
b11111111111111111111111000011100 T
#5045
b11111111111111111111111000011100 4
b11111111111111111111111111111110 T
#5046
b11111111111111111111111111111110 4
b11111111111111111111111111101010 T
#5047
b11111111111111111111111111101010 4
b100110 T
#5048
b100110 4
b110001000 T
#5049
b110001000 4
b11111111111111111111101101110011 T
#5050
b11111111111111111111101101110011 4
b1011101110 T
#5051
b1011101110 4
b11111111111111111111110110011110 T
#5052
b11111111111111111111110110011110 4
b1001011010011 T
#5053
b1001011010011 4
b11111111111111111111011010111101 T
#5054
b11111111111111111111011010111101 4
b1001010110100 T
#5055
b1001010110100 4
b11111111111111111111111010100101 T
#5056
b11111111111111111111111010100101 4
b1000110000000 T
#5057
b1000110000000 4
b11111111111111111110100011100110 T
#5058
b11111111111111111110100011100110 4
b101100001000 T
#5059
b101100001000 4
b11111111111111111110110000100110 T
#5060
b11111111111111111110110000100110 4
b1001111101100 T
#5061
b1001111101100 4
b11111111111111111111010100010110 T
#5062
b11111111111111111111010100010110 4
b101111100010 T
#5063
b101111100010 4
b11111111111111111111110010000000 T
#5064
b11111111111111111111110010000000 4
b11111111111111111111001101101000 T
#5065
b11111111111111111111001101101000 4
b110010000 T
#5066
b110010000 4
b100001100010 T
#5067
b100001100010 4
b1110011101 T
#5068
b1110011101 4
b11111111111111111111110010000101 T
#5069
b11111111111111111111110010000101 4
b111010 T
#5070
b111010 4
b101010100010 T
#5071
b101010100010 4
b11111111111111111111100011101000 T
#5072
b11111111111111111111100011101000 4
b11111111111111111111010001110100 T
#5073
b11111111111111111111010001110100 4
b11101001110 T
#5074
b11101001110 4
b1100011000 T
#5075
b1100011000 4
b11111111111111111111111000011100 T
#5076
b11111111111111111111111000011100 4
b11111111111111111111111111111110 T
#5077
b11111111111111111111111111111110 4
b11111111111111111111111111101010 T
#5078
b11111111111111111111111111101010 4
b100110 T
#5079
b100110 4
b110001000 T
#5080
b110001000 4
b11111111111111111111101101110011 T
#5081
b11111111111111111111101101110011 4
b1011101110 T
#5082
b1011101110 4
b11111111111111111111110110011110 T
#5083
b11111111111111111111110110011110 4
b1001011010011 T
#5084
b1001011010011 4
b11111111111111111111011010111101 T
#5085
b11111111111111111111011010111101 4
b1001010110100 T
#5086
b1001010110100 4
b11111111111111111111111010100101 T
#5087
b11111111111111111111111010100101 4
b1000110000000 T
#5088
b1000110000000 4
b11111111111111111110100011100110 T
#5089
b11111111111111111110100011100110 4
b101100001000 T
#5090
b101100001000 4
b11111111111111111110110000100110 T
#5091
b11111111111111111110110000100110 4
b1001111101100 T
#5092
b1001111101100 4
b11111111111111111111010100010110 T
#5093
b11111111111111111111010100010110 4
b101111100010 T
#5094
b101111100010 4
b11111111111111111111110010000000 T
#5095
b11111111111111111111110010000000 4
b11111111111111111111001101101000 T
#5096
b11111111111111111111001101101000 4
b110010000 T
#5097
b110010000 4
b100001100010 T
#5098
b100001100010 4
b1110011101 T
#5099
b1110011101 4
b11111111111111111111110010000101 T
#5100
b11111111111111111111110010000101 4
b111010 T
#5101
b111010 4
b101010100010 T
#5102
b101010100010 4
b11111111111111111111100011101000 T
#5103
b11111111111111111111100011101000 4
b11111111111111111111010001110100 T
#5104
b11111111111111111111010001110100 4
b11101001110 T
#5105
b11101001110 4
b1100011000 T
#5106
b1100011000 4
b11111111111111111111111000011100 T
#5107
b11111111111111111111111000011100 4
b11111111111111111111111111111110 T
#5108
b11111111111111111111111111111110 4
b11111111111111111111111111101010 T
#5109
b11111111111111111111111111101010 4
b100110 T
#5110
b100110 4
b110001000 T
#5111
b110001000 4
b11111111111111111111101101110011 T
#5112
b11111111111111111111101101110011 4
b1011101110 T
#5113
b1011101110 4
b11111111111111111111110110011110 T
#5114
b11111111111111111111110110011110 4
b1001011010011 T
#5115
b1001011010011 4
b11111111111111111111011010111101 T
#5116
b11111111111111111111011010111101 4
b1001010110100 T
#5117
b1001010110100 4
b11111111111111111111111010100101 T
#5118
b11111111111111111111111010100101 4
b1000110000000 T
#5119
b1000110000000 4
b11111111111111111110100011100110 T
#5120
b11111111111111111110100011100110 4
b101100001000 T
#5121
b101100001000 4
b11111111111111111110110000100110 T
